Zone;Map
Water City;Water City Suburbs
Water City;Wind Plain
Water City;Hill of Tear
Water City;Qua-Bridge Plain
Water City;Moon Bridge
Tree City;Sword Valley
Tree City;Leisure Garden
Tree City;Western Dock
Tree City;Eastern Dock
Tree City;Soul Lost Cliff
Tree City;Bluff
Tree City;Stone Cave Entry
Tree City;Bamboo Forest
Tree City;Hunter Cave
Tree City;Terrifying Cave1
Tree City;Terrifying Cave2
Hill City;General Valley
Hill City;Sunrise Bridge Head
Hill City;Sunrise Bridge
Hill City;Dry Well Plain
New Hill City;Blend Cloister1
New Hill City;Blend Cloister2
New Hill City;Blend Cloister3
New Hill City;Tranquil Cave
Sand City;Resent Cave Entry
Sand City;Eastern Oasis
Sand City;Silver Valley
Sand City;Golden Valley
Sand City;Goose Valley
Sand City;Horse Valley
Sand City;Drunkard Tomb
Sand City;Sand Plain
Sand City;Love Valley
Sand City;Moon-Scene Valley
Sand City;Quick Sand Plain
Sand City;Bandit Cave Entry
Sand City;Brassman Cave
Sand City;Prison Tower 1F
Sand City;Prison Tower 2F
Sand City;Oasis
Sand City;Green Cave
Sand City;Mushroom Cave
Sand City;Blue Cave
Sand City;Ancient City Site
Sand City;Sunken City
Sand City;Dungeon
Sand City;Suspended Stage
Bandit Cave;Brass Grottos1
Bandit Cave;Violet Grottos1
Bandit Cave;Bell Grotto
Bandit Cave;Brass Grottos2
Bandit Cave;Bronze Grottos1
Bandit Cave;Blue Water Cave
Bandit Cave;Dragon Cave1
Bandit Cave;Violet Grottos2
Bandit Cave;Bronze Grottos2
Bandit Cave;Bamboo Shoots Cave
Bandit Cave;Dragon Cave2
Rich Plain;Narrow Path
Rich Plain;Single Wood Plain
Rich Plain;Spring Bridge
Forbidden City;Spring Plain
Forbidden City;Yellow Hill
Forbidden City;Bird Valley
Forbidden City;Thaw Valley
Forbidden City;Smoke Valley
Snow City;Snow Plain
Snow City;Pine Plain
Snow City;Treading Plain
Snow City;Green Valley
Snow City;Western Snow Hill
Snow City;Icy Stage
Snow City;Transparent Bridge
Snow City;Jade Bridge
Sea Shore;Wandering Forest
Sea Shore;Root Valley
Sea Shore;Lonely Pavilion
Sea Shore;Maple Forest
Sea Shore;Cooer Hut
Sea Shore;Home Pavilion
Sea Shore;Watching Forest
Sea Shore;Dusk Path
Sea Shore;Print Valley
Sea Shore;No Return Shore
Sea Shore;Sad Moon
Sea Shore;Sad Past
Sea Shore;Sad Dream
Sea Shore;Phoenix Valley
Sea Shore;Grass Pool
Ocean City;Blue Sea Bed
Ocean City;Cute Room
Ocean City;Small Room
Ocean City;Corridor
Ocean City;Narrow Corridor1
Ocean City;Narrow Corridor2
Ocean City;Last Room
Hua Mountain;Hua Mountain Foot
Hua Mountain;Hua Mountain Pavilion
Hua Mountain;Hua Mountain Side
Hua Mountain;Hua Mountain Fall
Hua Mountain;Hua Mountain Peak
Hell;Iced Hell
Hell;Skin Hell
Hell;Spiky Hell
Hell;Deaf Hell
Hell;Cruel Hell
Hell;Twisting Hell
Hell;Burning Hell
Hell;Grinding Hell
Hell;Bombing Hell
Hell;Cutting Hell
Hell;Hanging Hell
Hell;Nail Hell
Hell;Bone Hell
Hell;Chopping Hell
Hell;Dirty Hell
Hell;Lantern Hell
Hell;Lava Hell
Hell;Boiling Hell
Sky City;Cloud Stage
Sky City;Violet Gate
Sky City;Measure Stage
Sky City;Dust Stage
Sky City;Dream City
Sky City;Power Gate
Sky City;Empty Garden
Sky City;Dew Stage
New Sky City;Floating Stage
New Sky City;Outdoors1
New Sky City;Outdoors2
New Sky City;Building
New Sky City;1F Main Hall
New Sky City;Main Hall Attic
New Sky City;Auditorium